# MagicaVoxel @ Ephtracy

# group
o 

# material
mtllib testClass.mtl
usemtl palette

# normals
vn -1 0 0
vn 1 0 0
vn 0 0 1
vn 0 0 -1
vn 0 -1 0
vn 0 1 0

# texcoords
vt 0.494141 0.5
vt 0.587891 0.5

# verts
v -0.3 0 1
v -0.3 0 -1
v -0.3 2 1
v -0.3 2 -1
v 2.98023e-008 0 1
v 2.98023e-008 0 -1
v 2.98023e-008 0.1 0.8
v 2.98023e-008 0.1 -0.8
v 2.98023e-008 1.9 0.8
v 2.98023e-008 1.9 -0.8
v 2.98023e-008 2 1
v 2.98023e-008 2 -1
v 0.1 0.1 0.8
v 0.1 0.1 -0.8
v 0.1 1.9 0.8
v 0.1 1.9 -0.8
v -0.3 0 1
v -0.3 2 1
v 2.98023e-008 0 1
v 2.98023e-008 2 1
v 2.98023e-008 0.1 0.8
v 2.98023e-008 1.9 0.8
v 0.1 0.1 0.8
v 0.1 1.9 0.8
v 2.98023e-008 0.1 -0.8
v 2.98023e-008 1.9 -0.8
v 0.1 0.1 -0.8
v 0.1 1.9 -0.8
v -0.3 0 -1
v -0.3 2 -1
v 2.98023e-008 0 -1
v 2.98023e-008 2 -1
v -0.3 0 1
v 2.98023e-008 0 1
v -0.3 0 -1
v 2.98023e-008 0 -1
v 2.98023e-008 0.1 0.8
v 0.1 0.1 0.8
v 2.98023e-008 0.1 -0.8
v 0.1 0.1 -0.8
v 2.98023e-008 1.9 0.8
v 0.1 1.9 0.8
v 2.98023e-008 1.9 -0.8
v 0.1 1.9 -0.8
v -0.3 2 1
v 2.98023e-008 2 1
v -0.3 2 -1
v 2.98023e-008 2 -1

# faces
f 3/1/1 2/1/1 1/1/1
f 4/1/1 2/1/1 3/1/1
f 5/1/2 6/1/2 7/1/2
f 7/1/2 6/1/2 8/1/2
f 5/1/2 7/1/2 9/1/2
f 8/1/2 6/1/2 10/1/2
f 5/1/2 9/1/2 11/1/2
f 9/1/2 10/1/2 11/1/2
f 10/1/2 6/1/2 12/1/2
f 11/1/2 10/1/2 12/1/2
f 13/2/2 14/2/2 15/2/2
f 15/2/2 14/2/2 16/2/2
f 19/1/3 18/1/3 17/1/3
f 20/1/3 18/1/3 19/1/3
f 23/2/3 22/2/3 21/2/3
f 24/2/3 22/2/3 23/2/3
f 25/2/4 26/2/4 27/2/4
f 27/2/4 26/2/4 28/2/4
f 29/1/4 30/1/4 31/1/4
f 31/1/4 30/1/4 32/1/4
f 35/1/5 34/1/5 33/1/5
f 36/1/5 34/1/5 35/1/5
f 39/2/5 38/2/5 37/2/5
f 40/2/5 38/2/5 39/2/5
f 41/2/6 42/2/6 43/2/6
f 43/2/6 42/2/6 44/2/6
f 45/1/6 46/1/6 47/1/6
f 47/1/6 46/1/6 48/1/6
