%YAML 1.1
%TAG !u! tag:unity3d.com,2011:
--- !u!1 &964946682065403170
GameObject:
  m_ObjectHideFlags: 0
  m_CorrespondingSourceObject: {fileID: 0}
  m_PrefabInstance: {fileID: 0}
  m_PrefabAsset: {fileID: 0}
  serializedVersion: 6
  m_Component:
  - component: {fileID: 4390590064621920865}
  - component: {fileID: 7494328452658585098}
  m_Layer: 0
  m_Name: House
  m_TagString: Untagged
  m_Icon: {fileID: 0}
  m_NavMeshLayer: 0
  m_StaticEditorFlags: 0
  m_IsActive: 1
--- !u!4 &4390590064621920865
Transform:
  m_ObjectHideFlags: 0
  m_CorrespondingSourceObject: {fileID: 0}
  m_PrefabInstance: {fileID: 0}
  m_PrefabAsset: {fileID: 0}
  m_GameObject: {fileID: 964946682065403170}
  m_LocalRotation: {x: 0, y: 0, z: 0, w: 1}
  m_LocalPosition: {x: 0, y: 0.2, z: -1.496}
  m_LocalScale: {x: 1, y: 1, z: 1}
  m_Children:
  - {fileID: 4739931408669448422}
  m_Father: {fileID: 0}
  m_RootOrder: 0
  m_LocalEulerAnglesHint: {x: 0, y: 0, z: 0}
--- !u!114 &7494328452658585098
MonoBehaviour:
  m_ObjectHideFlags: 0
  m_CorrespondingSourceObject: {fileID: 0}
  m_PrefabInstance: {fileID: 0}
  m_PrefabAsset: {fileID: 0}
  m_GameObject: {fileID: 964946682065403170}
  m_Enabled: 1
  m_EditorHideFlags: 0
  m_Script: {fileID: 11500000, guid: 47e900bcce06b7e40a2dd7d8a9c34b97, type: 3}
  m_Name: 
  m_EditorClassIdentifier: 
  MainRenderer: {fileID: 5784099455699104864}
  Size: {x: 1, y: 1}
--- !u!1001 &5065749126659505933
PrefabInstance:
  m_ObjectHideFlags: 0
  serializedVersion: 2
  m_Modification:
    m_TransformParent: {fileID: 4390590064621920865}
    m_Modifications:
    - target: {fileID: -8679921383154817045, guid: 07c8f5115260adf4ba478d0b39752d4c, type: 3}
      propertyPath: m_LocalPosition.x
      value: -0
      objectReference: {fileID: 0}
    - target: {fileID: -8679921383154817045, guid: 07c8f5115260adf4ba478d0b39752d4c, type: 3}
      propertyPath: m_LocalPosition.y
      value: 0
      objectReference: {fileID: 0}
    - target: {fileID: -8679921383154817045, guid: 07c8f5115260adf4ba478d0b39752d4c, type: 3}
      propertyPath: m_LocalPosition.z
      value: 0
      objectReference: {fileID: 0}
    - target: {fileID: -8679921383154817045, guid: 07c8f5115260adf4ba478d0b39752d4c, type: 3}
      propertyPath: m_LocalRotation.x
      value: 0
      objectReference: {fileID: 0}
    - target: {fileID: -8679921383154817045, guid: 07c8f5115260adf4ba478d0b39752d4c, type: 3}
      propertyPath: m_LocalRotation.y
      value: -0
      objectReference: {fileID: 0}
    - target: {fileID: -8679921383154817045, guid: 07c8f5115260adf4ba478d0b39752d4c, type: 3}
      propertyPath: m_LocalRotation.z
      value: -0
      objectReference: {fileID: 0}
    - target: {fileID: -8679921383154817045, guid: 07c8f5115260adf4ba478d0b39752d4c, type: 3}
      propertyPath: m_LocalRotation.w
      value: 1
      objectReference: {fileID: 0}
    - target: {fileID: -8679921383154817045, guid: 07c8f5115260adf4ba478d0b39752d4c, type: 3}
      propertyPath: m_RootOrder
      value: 0
      objectReference: {fileID: 0}
    - target: {fileID: -8679921383154817045, guid: 07c8f5115260adf4ba478d0b39752d4c, type: 3}
      propertyPath: m_LocalEulerAnglesHint.x
      value: 0
      objectReference: {fileID: 0}
    - target: {fileID: -8679921383154817045, guid: 07c8f5115260adf4ba478d0b39752d4c, type: 3}
      propertyPath: m_LocalEulerAnglesHint.y
      value: 0
      objectReference: {fileID: 0}
    - target: {fileID: -8679921383154817045, guid: 07c8f5115260adf4ba478d0b39752d4c, type: 3}
      propertyPath: m_LocalEulerAnglesHint.z
      value: 0
      objectReference: {fileID: 0}
    - target: {fileID: 919132149155446097, guid: 07c8f5115260adf4ba478d0b39752d4c, type: 3}
      propertyPath: m_Name
      value: house
      objectReference: {fileID: 0}
    m_RemovedComponents: []
  m_SourcePrefab: {fileID: 100100000, guid: 07c8f5115260adf4ba478d0b39752d4c, type: 3}
--- !u!4 &4739931408669448422 stripped
Transform:
  m_CorrespondingSourceObject: {fileID: -8679921383154817045, guid: 07c8f5115260adf4ba478d0b39752d4c, type: 3}
  m_PrefabInstance: {fileID: 5065749126659505933}
  m_PrefabAsset: {fileID: 0}
--- !u!23 &5784099455699104864 stripped
MeshRenderer:
  m_CorrespondingSourceObject: {fileID: -7635826562936255635, guid: 07c8f5115260adf4ba478d0b39752d4c, type: 3}
  m_PrefabInstance: {fileID: 5065749126659505933}
  m_PrefabAsset: {fileID: 0}
